 __    __                      ______    __     
/  |  /  |                    /      \  /  |    
$$ | /$$/   ______   ______  /$$$$$$  |_$$ |_   
$$ |/$$/   /      \ /      \ $$ |_ $$// $$   |  
$$  $$<   /$$$$$$  |$$$$$$  |$$   |   $$$$$$/   
$$$$$  \  $$ |  $$/ /    $$ |$$$$/      $$ | __ 
$$ |$$  \ $$ |     /$$$$$$$ |$$ |       $$ |/  |
$$ | $$  |$$ |     $$    $$ |$$ |       $$  $$/ 
$$/   $$/ $$/       $$$$$$$/ $$/         $$$$/  
                                                
                                                